entity_id,title,firm_type
ADF,Approved Deposit Fund,NULL
CCB,Commonwealth Government Public Company,NULL
CCN,Commonwealth Government Other Unincorporated Entity,NULL
CCO,Commonwealth Government Other Incorporated Entity,NULL
CCR,Commonwealth Government Private Company,NULL
CGA,Commonwealth Government Statutory Authority,government
CGC,Commonwealth Government Company,NULL
CGE,Commonwealth Government Entity,government
CGP,Commonwealth Government Partnership,NULL
CMT,Cash Management Trust,NULL
COP,Co-operative,NULL
CSA,Commonwealth Government APRA Regulated Public Sector Fund,NULL
CSP,Commonwealth Government APRA Regulated Public Sector Scheme,NULL
CSS,Commonwealth Government Non-Regulated Super Fund,NULL
CTD,Commonwealth Government Discretionary Services Management Trust,NULL
CTF,Commonwealth Government Fixed Trust,NULL
CTI,Commonwealth Government Discretionary Investment Trust,NULL
CTQ,Commonwealth Government Unlisted Public Unit Trust,NULL
CUT,Corporate Unit Trust,NULL
DES,Deceased Estate,NULL
DIT,Discretionary Investment Trust,trust
DST,Discretionary Services Management Trust,NULL
DTT,Discretionary Trading Trust,trust
FHS,First Home Saver Accounts Trust,NULL
FPT,Family Partnership,other
FUT,Fixed Unit Trust,trust
FXT,Fixed Trust,trust
HYT,Hybrid Trust,trust
IND,Individual/Sole Trader,other
LCN,Local Government Other Unincorporated Entity,NULL
LCO,Local Government Other Incorporated Entity,NULL
LCR,Local Government Private Company,NULL
LCS,Local Government Strata Title,NULL
LGA,Local Government Statutory Authority,government
LGC,Local Government Company,NULL
LGE,Local Government Entity,government
LGP,Local Government Partnership,NULL
LPT,Limited Partnership,NULL
LSP,Local Government APRA Regulated Public Sector Scheme,NULL
LSS,Local Government Non-Regulated Super Fund,NULL
LTI,Local Government Discretionary Investment Trust,NULL
LTT,Local Government Discretionary Investment Trust,NULL
NPF,APRA Regulated Non-Public Offer Fund,NULL
NRF,Non-Regulated Superannuation Fund,NULL
OIE,Other Incorporated Entity,other
PDF,Pooled Development Fund,NULL
POF,APRA Regulated Public Offer Fund,NULL
PQT,Unlisted Public Unit Trust,NULL
PRV,Australian Private Company,private
PST,Pooled Superannuation Trust,NULL
PTR,Other Partnership,other
PTT,Public Trading Trust,NULL
PUB,Australian Public Company,public
PUT,Listed Public Unit Trust,NULL
SAF,Small APRA Regulated Fund,NULL
SCB,State Government Public Company,NULL
SCC,State Government Co-operative,NULL
SCN,State Government Other Unincorporated Entity,NULL
SCO,State Government Other Incorporated Entity,government
SCR,State Government Private Company,NULL
SGA,State Government Statutory Authority,government
SGC,State Government Company,NULL
SGE,State Government Entity,government
SGP,State Government Partnership,NULL
SGT,State Government Trust,NULL
SMF,ATO Regulated Self-Managed Superannuation Fund,other
SSA,State Government APRA Regulated Public Sector Fund,NULL
SSP,State Government APRA Regulated Public Sector Scheme,NULL
SSS,State Government Non-Regulated Super Fund,NULL
STD,State Government Discretionary Services Management Trust,NULL
STF,State Government Fixed Trust,NULL
STI,State Government Discretionary Investment Trust,NULL
STR,Strata-title,NULL
STU,State Government Fixed Unit Trust,NULL
SUP,Super Fund,NULL
TCN,Territory Government Other Unincorporated Entity,NULL
TCO,Territory Government Other Incorporated Entity,NULL
TGA,Territory Government Statutory Authority,NULL
TGE,Territory Government Entity,government
TRT,Other Trust,trust
TTF,Territory Government Fixed Trust,NULL
TTI,Territory Government Discretionary Investment Trust,NULL
TTU,Territory Government Fixed Unit Trust,NULL
UIE,Other Unincorporated Entity,other
APP,Applicant,NULL
ARF,APRA Regulated Fund,NULL
CCC,Commonwealth Government Co-operative,NULL
CCL,Commonwealth Government Limited Partnership,NULL
CCP,Commonwealth Government Pooled Development Fund,NULL
CCS,Commonwealth Government Strata Title,NULL
CCT,Commonwealth Government Public Trading Trust,NULL
CCU,Commonwealth Government Corporate Unit Trust,NULL
CGS,Commonwealth Government Super Fund,NULL
CGT,Commonwealth Government Trust,NULL
CTC,Commonwealth Government Cash Management Trust,NULL
CTH,Commonwealth Government Hybrid Trust,NULL
CTL,Commonwealth Government Listed Public Unit Trust,NULL
CTT,Commonwealth Government Discretionary Trading Trust,NULL
CTU,Commonwealth Government Fixed Unit Trust,NULL
DIP,Diplomatic/Consulate Body or High Commission,NULL
LCB,Local Government Public Company,NULL
LCC,Local Government Co-operative,NULL
LCL,Local Government Limited Partnership,NULL
LCP,Local Government Pooled Development Fund,NULL
LCT,Local Government Public Trading Trust,NULL
LCU,Local Government Corporate Unit Trust,NULL
LGT,Local Government Trust,NULL
LSA,Local Government APRA Regulated Public Sector Fund,NULL
LTC,Local Government Cash Management Trust,NULL
LTD,Local Government Discretionary Services Management Trust,NULL
LTF,Local Government Fixed Trust,NULL
LTH,Local Government Hybrid Trust,NULL
LTL,Local Government Listed Public Unit Trust,NULL
LTQ,Local Government Unlisted Public Unit Trust,NULL
LTU,Local Government Fixed Unit Trust,NULL
RAP,Refused Applicant,NULL
SCL,State Government Limited Partnership,NULL
SCP,State Government Pooled Development Fund,NULL
SCS,State Government Strata Title,NULL
SCT,State Government Public Trading Trust,NULL
SCU,State Government Corporate Unit Trust,NULL
STC,State Government Cash Management Trust,NULL
STH,State Government Hybrid Trust,NULL
STL,State Government Listed Public Unit Trust,NULL
STQ,State Government Unlisted Public Unit Trust,NULL
STT,State Government Discretionary Trading Trust,NULL
TCB,Territory Government Public Company,NULL
TCC,Territory Government Co-operative,NULL
TCL,Territory Government Limited Partnership,NULL
TCP,Territory Government Pooled Development Fund,NULL
TCR,Territory Government Private Company,NULL
TCS,Territory Government Strata Title,NULL
TCT,Territory Government Public Trading Trust,NULL
TCU,Territory Government Corporate Unit Trust,NULL
TFN,TFN Applicant,NULL
TGP,Territory Government Partnership,NULL
TGT,Territory Government Trust,NULL
TSA,Territory Government APRA Regulated Public Sector Fund,NULL
TSP,Territory Government APRA Regulated Public Sector Scheme,NULL
TSS,Territory Government Non-Regulated Super Fund,NULL
TTC,Territory Government Cash Management Trust,NULL
TTD,Territory Government Discretionary Services Management Trust,NULL
TTH,Territory Government Hybrid Trust,NULL
TTL,Territory Government Listed Public Unit Trust,NULL
TTQ,Territory Government Unlisted Public Unit Trust,NULL
TTT,Territory Government Discretionary Trading Trust,NULL
_SE,[Custom field] State owned enterprise,stateowned
_NA,[Custom field] Non-existent company,error
